[gd_scene load_steps=3 format=2]

[ext_resource path="res://AvailablePartItem.tscn" type="PackedScene" id=1]
[ext_resource path="res://AvailablePartItemSelect.gd" type="Script" id=2]

[node name="AvailablePartItem" index="0" instance=ExtResource( 1 )]
script = ExtResource( 2 )

[node name="LabelType" parent="MarginContainer/HBoxContainer/VBoxContainer" index="1"]
visible = false

[node name="LabelCount" parent="MarginContainer/HBoxContainer/VBoxContainer" index="2"]
margin_top = 18.0
margin_bottom = 32.0

[node name="LabelPrice" parent="MarginContainer/HBoxContainer/VBoxContainer" index="3"]
margin_top = 36.0
margin_bottom = 50.0

[node name="Button" parent="MarginContainer/HBoxContainer" index="4"]
text = "select"

