[gd_resource type="ShaderMaterial" load_steps=2 format=2]

[ext_resource path="res://ShaderCharacterPortrait.tres" type="Shader" id=1]


[resource]
shader = ExtResource( 1 )
shader_param/hair_color = null
shader_param/clothe_color = null

