[gd_scene load_steps=2 format=2]

[ext_resource path="res://Provider.gd" type="Script" id=1]

[node name="Provider" type="Node"]
script = ExtResource( 1 )

[node name="DailyStock" type="Node" parent="."]

