[gd_scene load_steps=3 format=2]

[ext_resource path="res://ProviderItem.gd" type="Script" id=1]
[ext_resource path="res://icon.png" type="Texture" id=2]

[node name="ProviderItem" type="MarginContainer"]
margin_right = 600.0
margin_bottom = 200.0
size_flags_horizontal = 3
script = ExtResource( 1 )

[node name="RectSelected" type="ColorRect" parent="."]
visible = false
margin_right = 600.0
margin_bottom = 200.0
color = Color( 0.254791, 0.319196, 0.539062, 1 )

[node name="MarginContainer" type="MarginContainer" parent="."]
margin_right = 600.0
margin_bottom = 200.0
custom_constants/margin_right = 10
custom_constants/margin_top = 10
custom_constants/margin_left = 10
custom_constants/margin_bottom = 10

[node name="HBoxContainer" type="HBoxContainer" parent="MarginContainer"]
margin_left = 10.0
margin_top = 10.0
margin_right = 590.0
margin_bottom = 190.0
size_flags_horizontal = 3
size_flags_vertical = 3

[node name="TextureRect" type="TextureRect" parent="MarginContainer/HBoxContainer"]
margin_right = 64.0
margin_bottom = 180.0
texture = ExtResource( 2 )

[node name="VBoxContainer" type="VBoxContainer" parent="MarginContainer/HBoxContainer"]
margin_left = 68.0
margin_right = 94.0
margin_bottom = 180.0

[node name="LabelName" type="Label" parent="MarginContainer/HBoxContainer/VBoxContainer"]
margin_right = 26.0
margin_bottom = 14.0
text = "toto"

